<svg xmlns="http://www.w3.org/2000/svg" width="52" height="91" viewBox="0 0 52 91">
  <g id="Group_31" data-name="Group 31" transform="translate(-205 -685)">
    <g id="Group_5" data-name="Group 5" transform="translate(-124 65)">
      <g id="Group_4" data-name="Group 4">
        <g id="Rectangle_6" data-name="Rectangle 6" transform="translate(329 620)" fill="none" stroke="#fff" stroke-width="5">
          <rect width="52" height="91" rx="26" stroke="none"/>
          <rect x="2.5" y="2.5" width="47" height="86" rx="23.5" fill="none"/>
        </g>
      </g>
      <circle id="Ellipse_1" data-name="Ellipse 1" cx="13" cy="13" r="13" transform="translate(342 634)" fill="#fff"/>
    </g>
  </g>
</svg>
